A Gentle Introduction to Bayesian Analysis with Applications to QuantCrit
…
## ---------------------------
## input
## ---------------------------

df <- readRDS("college.RDS")

## ---------------------------
## show data set
## ---------------------------

df

## # A tibble: 17,202 × 7
##       id gender raceeth birthyr pov185 region    college
##    <int> <chr>  <chr>     <int> <chr>  <chr>       <dbl>
##  1 10001 male   white      1995 above  midwest         1
##  2 10002 female white      1995 below  northeast       1
##  3 10003 female blackaa    1995 above  west            1
##  4 10004 female white      1995 above  south           0
##  5 10005 male   white      1995 above  south           0
##  6 10007 female white      1994 above  northeast       1
##  7 10008 male   white      1994 above  northeast       1
##  8 10009 male   white      1995 above  south           1
##  9 10012 female white      1995 above  midwest         1
## 10 10013 male   white      1995 above  south           1
## # ℹ 17,192 more rows
…
