…
## using Stata version of data so we have labels; need haven::read_dta()
df <- read_dta("hsls_small.dta")
```


```r
## ---------------------------
## show data set
## ---------------------------

df
```

```
## # A tibble: 23,503 × 16
##    stu_id x1sex      x1race   x1stdob x1txmtscor x1paredu x1hhnumber x1famincome
##    <chr>  <dbl+lbl>  <dbl+lb> <chr>   <dbl+lbl>  <dbl+lb> <dbl+lbl>  <dbl+lbl>  
##  1 10001  1 [Male]   8 [Whit… 199502  59.4       5 [Mast… 3 [3 Hous… 10 [Family…
##  2 10002  2 [Female] 8 [Whit… 199511  47.7       3 [Asso… 6 [6 Hous…  3 [Family…
##  3 10003  2 [Female] 3 [Blac… 199506  64.2       7 [Ph.D… 3 [3 Hous…  6 [Family…
##  4 10004  2 [Female] 8 [Whit… 199505  49.3       4 [Bach… 2 [2 Hous…  5 [Family…
##  5 10005  1 [Male]   8 [Whit… 199505  62.6       4 [Bach… 4 [4 Hous…  9 [Family…
##  6 10006  2 [Female] 8 [Whit… 199504  58.1       3 [Asso… 6 [6 Hous…  5 [Family…
##  7 10007  2 [Female] 8 [Whit… 199409  49.5       2 [High… 2 [2 Hous…  4 [Family…
##  8 10008  1 [Male]   8 [Whit… 199410  54.6       7 [Ph.D… 3 [3 Hous…  7 [Family…
##  9 10009  1 [Male]   8 [Whit… 199501  53.2       2 [High… 3 [3 Hous…  4 [Family…
## 10 10010  2 [Female] 8 [Whit… 199503  63.8       3 [Asso… 4 [4 Hous…  4 [Family…
## # ℹ 23,493 more rows
## # ℹ 8 more variables: x1poverty185 <dbl+lbl>, x1ses <dbl+lbl>,
## #   x1stuedexpct <dbl+lbl>, x1paredexpct <dbl+lbl>, x1region <dbl+lbl>,
## #   x4hscompstat <dbl+lbl>, x4evratndclg <dbl+lbl>, x4hs2psmos <dbl+lbl>
```
…
